/Users/venkatarjunasiraparapu/Google Drive/Trainings/Support_Tasks/Dev_Support/vineeth/helloworld2/src/test/java/testRunner/testRunner.java
/Users/venkatarjunasiraparapu/Google Drive/Trainings/Support_Tasks/Dev_Support/vineeth/helloworld2/src/test/java/Sample/AppTest.java
/Users/venkatarjunasiraparapu/Google Drive/Trainings/Support_Tasks/Dev_Support/vineeth/helloworld2/src/test/java/steps/Common_Steps.java
/Users/venkatarjunasiraparapu/Google Drive/Trainings/Support_Tasks/Dev_Support/vineeth/helloworld2/src/test/java/elements/homePage_Elements.java
/Users/venkatarjunasiraparapu/Google Drive/Trainings/Support_Tasks/Dev_Support/vineeth/helloworld2/src/test/java/actions/FetchDataPage_actions.java
/Users/venkatarjunasiraparapu/Google Drive/Trainings/Support_Tasks/Dev_Support/vineeth/helloworld2/src/test/java/steps/homePage_Steps.java
/Users/venkatarjunasiraparapu/Google Drive/Trainings/Support_Tasks/Dev_Support/vineeth/helloworld2/src/test/java/actions/homePage_actions.java
/Users/venkatarjunasiraparapu/Google Drive/Trainings/Support_Tasks/Dev_Support/vineeth/helloworld2/src/test/java/elements/FetchDataPage_Elements.java
/Users/venkatarjunasiraparapu/Google Drive/Trainings/Support_Tasks/Dev_Support/vineeth/helloworld2/src/test/java/actions/common_Actions.java
/Users/venkatarjunasiraparapu/Google Drive/Trainings/Support_Tasks/Dev_Support/vineeth/helloworld2/src/test/java/steps/FetchDataPage_Steps.java
